Take home exercise 01
…
colorspace: an R package provides a broad toolbox for selecting individual colors or color palettes, manipulating these colors, and employing them in various kinds of visualisations.

pacman::p_load(tidyverse,ggdist,
               ggrepel, ggthemes,
               ggridges,patchwork,
               scales,colorspace)

Import data:

library(readxl)
data1 <- read_excel("data/Upload for elsiver.xlsx")
data1

# A tibble: 725 × 30
    CPRO CGEN   CRAC  CJOB  CQUI  TEIN  TAIN  TSII  TOIN  FEDU  FVTP  FCRA  FTAP
   <dbl> <chr> <dbl> <dbl> <dbl> <dbl> <dbl> <dbl> <dbl> <dbl> <dbl> <dbl> <dbl>
 1     1 1         2     1     3    37    25     7     5     1     1     1     1
 2     1 1         2     1     5    25    22     0     3     0     1     2     1
 3     1 2         2     3     3    33    25     0     8     1     1     1     2
 4     1 1         2     1     3    35    30     5     0     1     1     1    NA
 5     1 2         2     1     3    36    28     0     8     0     1     1     2
 6     1 2         2    NA     4    21    17     0     4     0     1     1     2
 7     1 1         2     3     1    35    25     0    10     3     2     1     2
 8     1 1         2     1     3    36    28     0     8     0     1     1     2
 9     1 1         2     3     3    38    26    12     0     2     2     1     2
10     1 1         2     1     3    30    22     2     6     0     1     1     2
# ℹ 715 more rows
# ℹ 17 more variables: LHO1 <dbl>, LHO2 <dbl>, LHO3 <dbl>, LHO4 <dbl>,
#   LCRE <dbl>, LSAV <dbl>, LWDA <dbl>, PPO1 <dbl>, PPO2 <dbl>, PPO3 <dbl>,
#   PPO4 <dbl>, PPO5 <dbl>, ARO1 <dbl>, ARO2 <dbl>, ARO3 <dbl>, ARO4 <chr>,
#   ARO5 <dbl>

Filtering the data fo selected variables:

we want to reduce the size of the dataset to focus on the variables that would be suitable for this exercise.

data1 <- data1 %>%
  select(CPRO, CGEN, CRAC, CQUI,
         TEIN, TAIN, TSII, TOIN,
         FEDU, LSAV, PPO1, PPO2)
data1

# A tibble: 725 × 12
    CPRO CGEN   CRAC  CQUI  TEIN  TAIN  TSII  TOIN  FEDU  LSAV  PPO1  PPO2
   <dbl> <chr> <dbl> <dbl> <dbl> <dbl> <dbl> <dbl> <dbl> <dbl> <dbl> <dbl>
 1     1 1         2     3    37    25     7     5     1     5     5     2
 2     1 1         2     5    25    22     0     3     0    NA     2     5
 3     1 2         2     3    33    25     0     8     1    30     5     5
 4     1 1         2     3    35    30     5     0     1    NA    NA    NA
 5     1 2         2     3    36    28     0     8     0    NA     5     5
 6     1 2         2     4    21    17     0     4     0     2     2     4
 7     1 1         2     1    35    25     0    10     3    70     5     2
 8     1 1         2     3    36    28     0     8     0    NA     5     2
 9     1 1         2     3    38    26    12     0     2    25     4     3
10     1 1         2     3    30    22     2     6     0    10     5     1
# ℹ 715 more rows
…
data1

# A tibble: 725 × 12
   Provinces Gender  Race `Income quintile group` `Total income`
       <dbl> <chr>  <dbl>                   <dbl>          <dbl>
 1         1 1          2                       3             37
 2         1 1          2                       5             25
 3         1 2          2                       3             33
 4         1 1          2                       3             35
 5         1 2          2                       3             36
 6         1 2          2                       4             21
 7         1 1          2                       1             35
 8         1 1          2                       3             36
 9         1 1          2                       3             38
10         1 1          2                       3             30
# ℹ 715 more rows
# ℹ 7 more variables: `Agricultural income` <dbl>,
#   `Service and industrial income` <dbl>, Others <dbl>, Education <dbl>,
#   Saving <dbl>, `Training Qualification` <dbl>,
#   `Supporting Chains for agricultural activities` <dbl>

Check and handle missing value:

Since income is the primary variable of interest in this study, observations with missing values in the income column were treated as invalid and excluded from the analysis. Upon inspection, only one record contained a missing value and was subsequently removed.

data1 <- data1 %>%
  filter(!is.na(`Total income`))
data1

# A tibble: 724 × 12
   Provinces Gender  Race `Income quintile group` `Total income`
       <dbl> <chr>  <dbl>                   <dbl>          <dbl>
 1         1 1          2                       3             37
 2         1 1          2                       5             25
 3         1 2          2                       3             33
 4         1 1          2                       3             35
 5         1 2          2                       3             36
 6         1 2          2                       4             21
 7         1 1          2                       1             35
 8         1 1          2                       3             36
 9         1 1          2                       3             38
10         1 1          2                       3             30
# ℹ 714 more rows
# ℹ 7 more variables: `Agricultural income` <dbl>,
#   `Service and industrial income` <dbl>, Others <dbl>, Education <dbl>,
#   Saving <dbl>, `Training Qualification` <dbl>,
#   `Supporting Chains for agricultural activities` <dbl>
…
Check and remove outliers:

Observations with missing values in the Saving variable were excluded, and the cleaned dataset was stored as data2 for further analysis of the correlation between total income and saving. After addressing missing values, the distribution of the data was examined, and influential outliers that could potentially distort the analytical results were removed prior to conducting the later analysis.

data2 <- data1 %>%
  filter(!is.na(Saving))
data2

# A tibble: 205 × 12
   Provinces Gender Race  `Income quintile group` `Total income`
   <chr>     <chr>  <chr> <chr>                            <dbl>
 1 1         1      2     3                                   37
 2 1         2      2     3                                   33
 3 1         2      2     4                                   21
 4 1         1      2     1                                   35
 5 1         1      2     3                                   38
 6 1         1      2     3                                   30
 7 1         1      2     3                                   58
 8 1         2      2     3                                   11
 9 1         2      2     1                                   95
10 1         1      1     2                                   33
# ℹ 195 more rows
# ℹ 7 more variables: `Agricultural income` <dbl>,
#   `Service and industrial income` <dbl>, Others <dbl>, Education <chr>,
#   Saving <dbl>, `Training Qualification` <chr>,
#   `Supporting Chains for agricultural activities` <chr>
…
